…
##Creation of new variables

###Cap rate data for boston
https://blogs.umass.edu/kmfay/2022/02/21/quincy-ma-average-property-noi/
according to this blog from Umass Boston the average NOI for Boston homes is $6,915

boston_add_df <- boston_MA_df %>% mutate(cap_rate = 6915/price) %>%
  filter(!is.na(bedroom_number)) %>% mutate(price_per_bedroom = price/bedroom_number)
boston_add_df

## # A tibble: 766 × 22
##    property_id address     street_name  city  rstate latitude longitude postcode
##          <dbl> <chr>       <chr>        <chr> <chr>     <dbl>     <dbl> <chr>   
##  1    59166243 30 Chestnu… Chestnut St  Bost… MA         42.4     -71.1 02108   
##  2  2107626553 63 Mount V… Mount Verno… Bost… MA         42.4     -71.1 02108   
##  3    59166308 17 Louisbu… Louisburg Sq Bost… MA         42.4     -71.1 02108   
##  4  2117794141 318 Beacon… Beacon St    Bost… MA         42.4     -71.1 02116   
##  5   333605731 1 Dalton S… Dalton St #… Bost… MA         42.3     -71.1 02115   
##  6    90141410 776 Boylst… Boylston St… Bost… MA         42.3     -71.1 02199   
##  7    59163970 10 Rowes W… Rowes Wharf… Bost… MA         42.4     -71.1 02110   
##  8    90141331 776 Boylst… Boylston St… Bost… MA         42.3     -71.1 02199   
##  9    61319917 2 Avery St… Avery St AP… Bost… MA         42.4     -71.1 02111   
## 10  2075168741 2 Avery St… Avery St AP… Bost… MA         NA        NA   02111   
## # … with 756 more rows, and 14 more variables: price <dbl>, zestimate <dbl>,
## #   bedroom_number <dbl>, bathroom_number <dbl>, price_per_unit <dbl>,
## #   living_space <dbl>, land_space <dbl>, property_type <chr>,
## #   property_status <chr>, agency_name <chr>, zillow_owned <dbl>,
## #   RunDate <dttm>, cap_rate <dbl>, price_per_bedroom <dbl>
…
