…
library(usdata)
library(maps)

## 
## Attaching package: 'maps'

## The following object is masked from 'package:purrr':
## 
##     map

state_stats

## # A tibble: 51 × 24
##    state   abbr   fips pop2010 pop2000 homeownership multiunit income med_income
##    <fct>   <fct> <dbl>   <dbl>   <dbl>         <dbl>     <dbl>  <dbl>      <dbl>
##  1 Alabama AL        1  4.78e6  4.45e6          71.1      15.5  22984      42081
##  2 Alaska  AK        2  7.10e5  6.27e5          64.7      24.6  30726      66521
##  3 Arizona AZ        4  6.39e6  5.13e6          67.4      20.7  25680      50448
##  4 Arkans… AR        5  2.92e6  2.67e6          67.7      15.2  21274      39267
##  5 Califo… CA        6  3.73e7  3.39e7          57.4      30.7  29188      60883
##  6 Colora… CO        8  5.03e6  4.30e6          67.6      25.6  30151      56456
##  7 Connec… CT        9  3.57e6  3.41e6          69.2      34.6  36775      67740
##  8 Delawa… DE       10  8.98e5  7.84e5          73.6      17.7  29007      57599
##  9 Distri… DC       11  6.02e5  5.72e5          43.5      61.7  42078      58526
## 10 Florida FL       12  1.88e7  1.60e7          69.7      30    26551      47661
## # … with 41 more rows, and 15 more variables: poverty <dbl>, fed_spend <dbl>,
## #   land_area <dbl>, smoke <dbl>, murder <dbl>, robbery <dbl>,
## #   agg_assault <dbl>, larceny <dbl>, motor_theft <dbl>, soc_sec <dbl>,
## #   nuclear <dbl>, coal <dbl>, tr_deaths <dbl>, tr_deaths_no_alc <dbl>,
## #   unempl <dbl>
…
