…
## 
## ℹ Use `spec()` to retrieve the full column specification for this data.
## ℹ Specify the column types or set `show_col_types = FALSE` to quiet this message.

##view(boston_original_df)
boston_MA_df <- boston_original_df %>% filter(rstate == "MA")
boston_MA_df <- boston_MA_df %>% arrange(desc(price))
##view(boston_MA_df)
boston_MA_df

## # A tibble: 780 × 20
##    property_id address     street_name  city  rstate latitude longitude postcode
##          <dbl> <chr>       <chr>        <chr> <chr>     <dbl>     <dbl> <chr>   
##  1    59166243 30 Chestnu… Chestnut St  Bost… MA         42.4     -71.1 02108   
##  2  2107626553 63 Mount V… Mount Verno… Bost… MA         42.4     -71.1 02108   
##  3    59166308 17 Louisbu… Louisburg Sq Bost… MA         42.4     -71.1 02108   
##  4  2117794141 318 Beacon… Beacon St    Bost… MA         42.4     -71.1 02116   
##  5   333605731 1 Dalton S… Dalton St #… Bost… MA         42.3     -71.1 02115   
##  6    90141410 776 Boylst… Boylston St… Bost… MA         42.3     -71.1 02199   
##  7    59163970 10 Rowes W… Rowes Wharf… Bost… MA         42.4     -71.1 02110   
##  8    90141331 776 Boylst… Boylston St… Bost… MA         42.3     -71.1 02199   
##  9    61319917 2 Avery St… Avery St AP… Bost… MA         42.4     -71.1 02111   
## 10  2075168741 2 Avery St… Avery St AP… Bost… MA         NA        NA   02111   
## # … with 770 more rows, and 12 more variables: price <dbl>, zestimate <dbl>,
## #   bedroom_number <dbl>, bathroom_number <dbl>, price_per_unit <dbl>,
## #   living_space <dbl>, land_space <dbl>, property_type <chr>,
## #   property_status <chr>, agency_name <chr>, zillow_owned <dbl>,
## #   RunDate <dttm>

boston_general <- boston_MA_df %>%
  mutate(avg_price = sum(price) / 780) %>%
  mutate(projected_rental_income = living_space * 4.50) %>%
  mutate(down_payment = price * .20) %>%
  mutate(principal = price - down_payment) %>%
  mutate(projected_mortgage_payment = ((principal/330) * 1.042)) %>%
  mutate(projected_mortgage_yr = projected_mortgage_payment * 12) %>%
  mutate(projected_rental_income_yr = (projected_rental_income * 12)) %>%
  mutate(ROI = (projected_rental_income_yr - projected_mortgage_yr) / projected_mortgage_yr)

boston_general

## # A tibble: 780 × 28
##    property_id address     street_name  city  rstate latitude longitude postcode
##          <dbl> <chr>       <chr>        <chr> <chr>     <dbl>     <dbl> <chr>   
##  1    59166243 30 Chestnu… Chestnut St  Bost… MA         42.4     -71.1 02108   
##  2  2107626553 63 Mount V… Mount Verno… Bost… MA         42.4     -71.1 02108   
##  3    59166308 17 Louisbu… Louisburg Sq Bost… MA         42.4     -71.1 02108   
##  4  2117794141 318 Beacon… Beacon St    Bost… MA         42.4     -71.1 02116   
##  5   333605731 1 Dalton S… Dalton St #… Bost… MA         42.3     -71.1 02115   
##  6    90141410 776 Boylst… Boylston St… Bost… MA         42.3     -71.1 02199   
##  7    59163970 10 Rowes W… Rowes Wharf… Bost… MA         42.4     -71.1 02110   
##  8    90141331 776 Boylst… Boylston St… Bost… MA         42.3     -71.1 02199   
##  9    61319917 2 Avery St… Avery St AP… Bost… MA         42.4     -71.1 02111   
## 10  2075168741 2 Avery St… Avery St AP… Bost… MA         NA        NA   02111   
## # … with 770 more rows, and 20 more variables: price <dbl>, zestimate <dbl>,
## #   bedroom_number <dbl>, bathroom_number <dbl>, price_per_unit <dbl>,
## #   living_space <dbl>, land_space <dbl>, property_type <chr>,
## #   property_status <chr>, agency_name <chr>, zillow_owned <dbl>,
## #   RunDate <dttm>, avg_price <dbl>, projected_rental_income <dbl>,
## #   down_payment <dbl>, principal <dbl>, projected_mortgage_payment <dbl>,
## #   projected_mortgage_yr <dbl>, projected_rental_income_yr <dbl>, ROI <dbl>
…
