…
## 
## ℹ Use `spec()` to retrieve the full column specification for this data.
## ℹ Specify the column types or set `show_col_types = FALSE` to quiet this message.

##view(boston_original_df)
boston_MA_df <- boston_original_df %>% filter(rstate == "MA")
boston_MA_df <- boston_MA_df %>% arrange(desc(price))
##view(boston_MA_df)

boston_add_df <- boston_MA_df %>% mutate(cap_rate = 6915/price) %>%
  filter(!is.na(bedroom_number)) %>% mutate(price_per_bedroom = price/bedroom_number)
boston_add_df

## # A tibble: 766 × 22
##    property_id address     street_name  city  rstate latitude longitude postcode
##          <dbl> <chr>       <chr>        <chr> <chr>     <dbl>     <dbl> <chr>   
##  1    59166243 30 Chestnu… Chestnut St  Bost… MA         42.4     -71.1 02108   
##  2  2107626553 63 Mount V… Mount Verno… Bost… MA         42.4     -71.1 02108   
##  3    59166308 17 Louisbu… Louisburg Sq Bost… MA         42.4     -71.1 02108   
##  4  2117794141 318 Beacon… Beacon St    Bost… MA         42.4     -71.1 02116   
##  5   333605731 1 Dalton S… Dalton St #… Bost… MA         42.3     -71.1 02115   
##  6    90141410 776 Boylst… Boylston St… Bost… MA         42.3     -71.1 02199   
##  7    59163970 10 Rowes W… Rowes Wharf… Bost… MA         42.4     -71.1 02110   
##  8    90141331 776 Boylst… Boylston St… Bost… MA         42.3     -71.1 02199   
##  9    61319917 2 Avery St… Avery St AP… Bost… MA         42.4     -71.1 02111   
## 10  2075168741 2 Avery St… Avery St AP… Bost… MA         NA        NA   02111   
## # … with 756 more rows, and 14 more variables: price <dbl>, zestimate <dbl>,
## #   bedroom_number <dbl>, bathroom_number <dbl>, price_per_unit <dbl>,
## #   living_space <dbl>, land_space <dbl>, property_type <chr>,
## #   property_status <chr>, agency_name <chr>, zillow_owned <dbl>,
## #   RunDate <dttm>, cap_rate <dbl>, price_per_bedroom <dbl>

boston_single <- boston_add_df %>% filter(property_type == "SINGLE_FAMILY") %>%
  mutate(avg_price = sum(price) / 38) %>%
  mutate(projected_rental_income = living_space * 4.50) %>%
  mutate(down_payment = price * .20) %>%
  mutate(principal = price - down_payment) %>%
  mutate(projected_mortgage_payment = ((principal/330) * 1.042)) %>%
  mutate(projected_mortgage_yr = projected_mortgage_payment * 12) %>%
  mutate(projected_rental_income_yr = (projected_rental_income * 12)) %>%
  mutate(ROI = (projected_rental_income_yr - projected_mortgage_yr) / projected_mortgage_yr)

boston_single

## # A tibble: 51 × 30
##    property_id address      street_name city  rstate latitude longitude postcode
##          <dbl> <chr>        <chr>       <chr> <chr>     <dbl>     <dbl> <chr>   
##  1    59166243 30 Chestnut… Chestnut St Bost… MA         42.4     -71.1 02108   
##  2    59166308 17 Louisbur… Louisburg … Bost… MA         42.4     -71.1 02108   
##  3    59169848 352 Marlbor… Marlboroug… Bost… MA         42.4     -71.1 02115   
##  4    59174930 31 Chestnut… Chestnut St Bost… MA         42.4     -71.1 02108   
##  5    59174916 9 Chestnut … Chestnut St Bost… MA         42.4     -71.1 02108   
##  6   113389948 69 Hancock … Hancock St  Bost… MA         42.4     -71.1 02114   
##  7  2103780872 71 Hancock … Hancock St  Bost… MA         42.4     -71.1 02114   
##  8   189950691 86 Chestnut… Chestnut St Bost… MA         42.4     -71.1 02108   
##  9    59174448 54 Pinckney… Pinckney St Bost… MA         42.4     -71.1 02114   
## 10    59172993 138 Saint B… Saint Boto… Bost… MA         42.3     -71.1 02115   
## # … with 41 more rows, and 22 more variables: price <dbl>, zestimate <dbl>,
## #   bedroom_number <dbl>, bathroom_number <dbl>, price_per_unit <dbl>,
## #   living_space <dbl>, land_space <dbl>, property_type <chr>,
## #   property_status <chr>, agency_name <chr>, zillow_owned <dbl>,
## #   RunDate <dttm>, cap_rate <dbl>, price_per_bedroom <dbl>, avg_price <dbl>,
## #   projected_rental_income <dbl>, down_payment <dbl>, principal <dbl>,
## #   projected_mortgage_payment <dbl>, projected_mortgage_yr <dbl>, …
…
